\relax 
\providecommand\hyper@newdestlabel[2]{}
\providecommand\HyperFirstAtBeginDocument{\AtBeginDocument}
\HyperFirstAtBeginDocument{\ifx\hyper@anchor\@undefined
\global\let\oldcontentsline\contentsline
\gdef\contentsline#1#2#3#4{\oldcontentsline{#1}{#2}{#3}}
\global\let\oldnewlabel\newlabel
\gdef\newlabel#1#2{\newlabelxx{#1}#2}
\gdef\newlabelxx#1#2#3#4#5#6{\oldnewlabel{#1}{{#2}{#3}}}
\AtEndDocument{\ifx\hyper@anchor\@undefined
\let\contentsline\oldcontentsline
\let\newlabel\oldnewlabel
\fi}
\fi}
\global\let\hyper@last\relax 
\gdef\HyperFirstAtBeginDocument#1{#1}
\providecommand\HyField@AuxAddToFields[1]{}
\providecommand\HyField@AuxAddToCoFields[2]{}
\@writefile{toc}{\contentsline {title}{Learning Monotone Partitions \unskip \ \ignorespaces  of Partially-Ordered Domains}{1}{chapter.1}}
\@writefile{toc}{\authcount {1}}
\@writefile{toc}{\contentsline {author}{Nicolas Basset, Oded Maler\unskip {}, Jos\'e-Ignacio Requeno Jarabo \unskip \ \ignorespaces  \{bassetni, jose-ignacio.requeno-jarabo\}@univ-grenoble-alpes.fr }{1}{chapter.1}}
\@writefile{toc}{\contentsline {section}{\numberline {1}Introduction and Motivation}{1}{section.1.1}}
\citation{parametric}
\citation{julien}
\@writefile{lof}{\contentsline {figure}{\numberline {1}{\ignorespaces A monotone partition and its approximation.\relax }}{2}{figure.caption.2}}
\providecommand*\caption@xref[2]{\@setref\relax\@undefined{#1}}
\newlabel{fig:part-approx2}{{1}{2}{A monotone partition and its approximation.\relax }{figure.caption.2}{}}
\citation{vazquez_github}
\citation{DBLP:conf/rv/Vazquez-Chanlatte18,DBLP:conf/cav/Vazquez-Chanlatte17}
\@writefile{toc}{\contentsline {subsection}{\numberline {1.1}Related work}{3}{subsection.1.1.1}}
\@writefile{toc}{\contentsline {section}{\numberline {2}Binary Search in One Dimension}{3}{section.1.2}}
\@writefile{toc}{\contentsline {section}{\numberline {3}Monotone Partitions in Dimension 2}{3}{section.1.3}}
\@writefile{loa}{\contentsline {algorithm}{\numberline {1}{\ignorespaces One dimensional binary search: $search({\delimiter "426830A {\relax $\@@underline {\hbox {x}}\mathsurround \z@ $\relax },{\overline  {x}}\delimiter "526930B },\epsilon $)\relax }}{4}{algorithm.1}}
\newlabel{alg:binary}{{1}{4}{One dimensional binary search: $search(\diag {\ux }{\ox },\eps $)\relax }{algorithm.1}{}}
\@writefile{lof}{\contentsline {figure}{\numberline {2}{\ignorespaces Binary search and the successive reduction of the uncertainty interval. \relax }}{4}{figure.caption.3}}
\newlabel{fig:bsearch-no-tree}{{2}{4}{Binary search and the successive reduction of the uncertainty interval. \comment {The rightmost known element of $\uX $ and leftmost known elements of $\oX $ are indicated by $-$ and $+$, respectively. On the right we see the same process interpreted as path selection in a binary tree.} \relax }{figure.caption.3}{}}
\@writefile{lof}{\contentsline {figure}{\numberline {3}{\ignorespaces Successive approximation of the partition boundary by running binary search on diagonals of incomparable boxes.\relax }}{5}{figure.caption.4}}
\newlabel{fig:multi-dim-new}{{3}{5}{Successive approximation of the partition boundary by running binary search on diagonals of incomparable boxes.\relax }{figure.caption.4}{}}
\newlabel{algo:basic}{{2}{5}{Approximating a monotone partition (and its boundary) by unions of rectangular cones.\relax }{algorithm.2}{}}
\@writefile{loa}{\contentsline {algorithm}{\numberline {2}{\ignorespaces Approximating a monotone partition (and its boundary) by unions of rectangular cones.\relax }}{5}{algorithm.2}}
\newlabel{alg:multi}{{2}{5}{Approximating a monotone partition (and its boundary) by unions of rectangular cones.\relax }{algorithm.2}{}}
\@writefile{lof}{\contentsline {figure}{\numberline {4}{\ignorespaces (a) The effect of finding the exact intersection of the diagonal with the boundary; (b) The effect of finding an interval approximation of that intersection.\relax }}{6}{figure.caption.5}}
\newlabel{fig:ideal-not}{{4}{6}{(a) The effect of finding the exact intersection of the diagonal with the boundary; (b) The effect of finding an interval approximation of that intersection.\relax }{figure.caption.5}{}}
\newlabel{def:sub-intervals}{{2}{7}{Monotone Partitions in Dimension 2}{definition.1.2}{}}
\newlabel{def:sub-boxes}{{3}{7}{Monotone Partitions in Dimension 2}{definition.1.3}{}}
\@writefile{toc}{\contentsline {section}{\numberline {4}Monotone Partitions in Dimension Higher than 2}{7}{section.1.4}}
\newlabel{sec:new-stuff}{{4}{7}{Monotone Partitions in Dimension Higher than 2}{section.1.4}{}}
\@writefile{toc}{\contentsline {subsection}{\numberline {4.1}Enhanced partitioning step}{7}{subsection.1.4.1}}
\newlabel{sec:frites}{{4.1}{7}{Enhanced partitioning step}{subsection.1.4.1}{}}
\@writefile{lof}{\contentsline {figure}{\numberline {5}{\ignorespaces A way of decomposing the remainder part into $2n-3=3$ boxes instead of $2^n-2=6$ in dimension $n=3$. Each coloured box corresponds to a box $B_{\alpha _{\texttt  {color}}}({\relax $\@@underline {\hbox {x}}\mathsurround \z@ $\relax },{\overline  {x}},{\relax $\@@underline {\hbox {y}}\mathsurround \z@ $\relax },{\overline  {y}})$ with $\alpha _{\texttt  {red}}=10\star $, $\alpha _{\texttt  {yellow}}=\star 10$ and $\alpha _{\texttt  {green}}=0\star 1$. \relax }}{8}{figure.caption.6}}
\newlabel{figure:frites}{{5}{8}{A way of decomposing the remainder part into $2n-3=3$ boxes instead of $2^n-2=6$ in dimension $n=3$. Each coloured box corresponds to a box $\rval {\a _{\texttt {color}}}{\ux }{\ox }{\uy }{\oy }$ with $\a _{\texttt {red}}=10\star $, $\a _{\texttt {yellow}}=\star 10$ and $\a _{\texttt {green}}=0\star 1$. \relax }{figure.caption.6}{}}
\newlabel{ex:frite_first}{{1}{8}{Enhanced partitioning step}{example.1.1}{}}
\@writefile{toc}{\contentsline {subsection}{\numberline {4.2}Propagating dominance to boxes of the boundary approximation}{9}{subsection.1.4.2}}
\newlabel{sec:pitfall}{{4.2}{9}{Propagating dominance to boxes of the boundary approximation}{subsection.1.4.2}{}}
\newlabel{ex:frites_continued}{{2}{9}{Propagating dominance to boxes of the boundary approximation}{example.1.2}{}}
\citation{paretolib}
\citation{vazquez_github}
\citation{DBLP:conf/cav/Vazquez-Chanlatte17,DBLP:conf/rv/Vazquez-Chanlatte18}
\@writefile{toc}{\contentsline {subsection}{\numberline {4.3}Combining ideas in an updated algorithm}{10}{subsection.1.4.3}}
\newlabel{sec:puttingthingstogether}{{4.3}{10}{Combining ideas in an updated algorithm}{subsection.1.4.3}{}}
\@writefile{loa}{\contentsline {algorithm}{\numberline {3}{\ignorespaces Approximating a monotone partition (and its boundary) by unions of rectangular boxes.\relax }}{10}{algorithm.3}}
\newlabel{alg:multi2}{{3}{10}{Approximating a monotone partition (and its boundary) by unions of rectangular boxes.\relax }{algorithm.3}{}}
\newlabel{lin:inc1}{{12}{10}{Approximating a monotone partition (and its boundary) by unions of rectangular boxes.\relax }{algorithm.3}{}}
\newlabel{lin:inc2}{{16}{10}{Approximating a monotone partition (and its boundary) by unions of rectangular boxes.\relax }{algorithm.3}{}}
\newlabel{lin:inc3}{{19}{10}{Approximating a monotone partition (and its boundary) by unions of rectangular boxes.\relax }{algorithm.3}{}}
\citation{ndtree}
\citation{stl}
\citation{amt}
\@writefile{toc}{\contentsline {section}{\numberline {5}ParetoLib Library}{11}{section.1.5}}
\@writefile{toc}{\contentsline {subsection}{\numberline {5.1}Overview}{11}{subsection.1.5.1}}
\@writefile{lof}{\contentsline {figure}{\numberline {6}{\ignorespaces Original Pareto front (a) and the inferred closures (b) learnt by our partitioning algorithm\relax }}{12}{figure.caption.7}}
\newlabel{fig:example}{{6}{12}{Original Pareto front (a) and the inferred closures (b) learnt by our partitioning algorithm\relax }{figure.caption.7}{}}
\@writefile{lof}{\contentsline {subfigure}{\numberline{(a)}{\ignorespaces {}}}{12}{subfigure.6.1}}
\@writefile{lof}{\contentsline {subfigure}{\numberline{(b)}{\ignorespaces {}}}{12}{subfigure.6.2}}
\@writefile{toc}{\contentsline {subsection}{\numberline {5.2}Experiments}{12}{subsection.1.5.2}}
\@writefile{lof}{\contentsline {figure}{\numberline {7}{\ignorespaces Set of random points over the surface of a 3D simplex (a) and the inferred Pareto front (b)\relax }}{13}{figure.caption.8}}
\newlabel{fig:3d-simplex}{{7}{13}{Set of random points over the surface of a 3D simplex (a) and the inferred Pareto front (b)\relax }{figure.caption.8}{}}
\@writefile{lof}{\contentsline {subfigure}{\numberline{(a)}{\ignorespaces {}}}{13}{subfigure.7.1}}
\@writefile{lof}{\contentsline {subfigure}{\numberline{(b)}{\ignorespaces {}}}{13}{subfigure.7.2}}
\@writefile{lof}{\contentsline {figure}{\numberline {8}{\ignorespaces Set of random points over the surface of a 3D hypersphere (a) and the inferred Pareto front (b)\relax }}{13}{figure.caption.9}}
\newlabel{fig:3d-hypersphere}{{8}{13}{Set of random points over the surface of a 3D hypersphere (a) and the inferred Pareto front (b)\relax }{figure.caption.9}{}}
\@writefile{lof}{\contentsline {subfigure}{\numberline{(a)}{\ignorespaces {}}}{13}{subfigure.8.1}}
\@writefile{lof}{\contentsline {subfigure}{\numberline{(b)}{\ignorespaces {}}}{13}{subfigure.8.2}}
\@writefile{lof}{\contentsline {figure}{\numberline {9}{\ignorespaces Volume contained in the boundary, upper and lower closures for a 2D simplex (a) and hypersphere (b)\relax }}{14}{figure.caption.10}}
\newlabel{fig:vol-2d-1000points}{{9}{14}{Volume contained in the boundary, upper and lower closures for a 2D simplex (a) and hypersphere (b)\relax }{figure.caption.10}{}}
\@writefile{lof}{\contentsline {figure}{\numberline {10}{\ignorespaces Volume contained in the boundary of a simplex (a) and hypersphere (b) using the standard and optimised algorithms (opt. algorithm is not applicable to 2D)\relax }}{14}{figure.caption.11}}
\newlabel{fig:vol-1000points-simplex-hypersphere}{{10}{14}{Volume contained in the boundary of a simplex (a) and hypersphere (b) using the standard and optimised algorithms (opt. algorithm is not applicable to 2D)\relax }{figure.caption.11}{}}
\@writefile{lot}{\contentsline {table}{\numberline {1}{\ignorespaces Execution time in seconds consumed by the ParetoLib tool\relax }}{14}{table.caption.12}}
\newlabel{tab:exec_time}{{1}{14}{Execution time in seconds consumed by the ParetoLib tool\relax }{table.caption.12}{}}
\@writefile{toc}{\contentsline {section}{\numberline {6}Conclusions}{15}{section.1.6}}
\bibstyle{plain}
\bibdata{bsearch}
\bibcite{parametric}{1}
\bibcite{paretolib}{2}
\bibcite{ndtree}{3}
\bibcite{julien}{4}
\bibcite{stl}{5}
\bibcite{amt}{6}
\bibcite{vazquez_github}{7}
\bibcite{DBLP:conf/cav/Vazquez-Chanlatte17}{8}
\bibcite{DBLP:conf/rv/Vazquez-Chanlatte18}{9}
