#FIG 3.2
# Created by WinFIG version 6.0 final
# METADATA <version>1.0</version>
Portrait
Flush left
Metric
A4
100.00
Single
-2
1200 2
# METADATA <id>51</id>
2 1 1 1 0 0 50 0 -1 4.000 0 0 0 0 0 2
	 7770 2355 7800 8040
# METADATA <id>1</id>
2 1 0 1 0 7 50 0 -1 4.000 0 0 0 0 0 2
	 3310 2348 10632 2348
# METADATA <id>19</id>
2 1 0 1 0 7 50 0 -1 4.000 0 0 0 0 0 2
	 3329 8033 10651 8033
# METADATA <id>52</id>
2 1 1 1 0 0 50 0 -1 4.000 0 0 0 0 0 1
	 7893 8252
# METADATA <id>16</id>
2 1 0 1 0 7 50 0 -1 4.000 0 0 0 0 0 2
	 3329 6616 10651 6616
# METADATA <id>13</id>
2 1 0 1 0 7 50 0 -1 4.000 0 0 0 0 0 3
	 3329 5212 8054 5212 10651 5212
# METADATA <id>10</id>
2 1 0 1 0 7 50 0 -1 4.000 0 0 0 0 0 2
	 3329 3781 10651 3781
# METADATA <id>76</id>
2 1 0 1 0 7 50 0 -1 4.000 0 0 0 0 0 1
	 7581 6629
# METADATA <id>109</id>
4 0 0 50 0 0 12 0.0000 6 198 315 7770 2130 $z$\001
# METADATA <id>110</id>
4 0 0 50 0 0 12 0.0000 6 198 495 3307 2126 $\\ux$\001
# METADATA <id>111</id>
4 0 0 50 0 0 12 0.0000 6 198 495 10630 2127 $\\ox$\001
# METADATA <id>112</id>
4 0 0 50 0 0 12 0.0000 6 198 495 7365 8370 $\\uy$\001
# METADATA <id>113</id>
4 0 0 50 0 0 12 0.0000 6 198 495 8085 8385 $\\oy$\001
# METADATA <id>115</id>
1 3 0 1 0 7 50 0 -1 4.000 1 0.0000 3330 2355 62 62 3330 2355 3345 2415
# METADATA <id>116</id>
1 3 0 1 0 7 50 0 0 4.000 1 0.0000 10635 2355 62 62 10635 2355 10650 2415
# METADATA <id>119</id>
1 3 0 1 0 7 50 0 -1 4.000 1 0.0000 7080 3780 62 62 7080 3780 7095 3840
# METADATA <id>120</id>
1 3 0 1 0 7 50 0 0 4.000 1 0.0000 10650 3780 62 62 10650 3780 10665 3840
# METADATA <id>121</id>
1 3 0 1 0 7 50 0 0 4.000 1 0.0000 8985 5205 62 62 8985 5205 9000 5265
# METADATA <id>122</id>
1 3 0 1 0 7 50 0 -1 4.000 1 0.0000 7095 5205 62 62 7095 5205 7110 5265
# METADATA <id>126</id>
1 3 0 1 0 7 50 0 0 4.000 1 0.0000 8071 6601 62 62 8071 6601 8086 6661
# METADATA <id>127</id>
1 3 0 1 0 7 50 0 -1 4.000 1 0.0000 7095 6630 62 62 7095 6630 7110 6690
# METADATA <id>128</id>
4 0 0 50 0 0 12 0.0000 6 198 315 7087 2126 $y$\001
# METADATA <id>130</id>
1 3 0 1 0 7 50 0 -1 4.000 1 0.0000 7590 8025 62 62 7590 8025 7605 8085
# METADATA <id>131</id>
1 3 0 1 0 7 50 0 0 4.000 1 0.0000 8071 8011 62 62 8071 8011 8086 8071
# METADATA <id>136</id>
2 2 0 1 0 0 50 0 -1 4.000 0 0 7 0 0 5
	 6943 2216 7180 2216 7180 2452 6943 2452 6943 2216
# METADATA <id>137</id>
2 2 0 1 0 0 50 0 -1 4.000 0 0 7 0 0 5
	 8863 3656 9100 3656 9100 3892 8863 3892 8863 3656
# METADATA <id>138</id>
2 2 0 1 0 0 50 0 -1 4.000 0 0 7 0 0 5
	 7948 5074 8185 5074 8185 5310 7948 5310 7948 5074
# METADATA <id>139</id>
2 2 0 1 0 0 50 0 -1 4.000 0 0 7 0 0 5
	 7453 6484 7690 6484 7690 6720 7453 6720 7453 6484
# METADATA <id>141</id>
2 1 2 1 0 0 50 0 -1 4.000 0 0 0 1 0 2
	1 1 1.00 60.00 120.00
	 7080 2355 7080 3780
# METADATA <id>142</id>
2 1 2 1 0 0 50 0 -1 4.000 0 0 0 1 0 2
	1 1 1.00 60.00 120.00
	 8985 3780 8985 5205
# METADATA <id>143</id>
2 1 2 1 0 0 50 0 -1 4.000 0 0 0 1 0 2
	1 1 1.00 60.00 120.00
	 8070 5205 8070 6600
# METADATA <id>144</id>
2 1 2 1 0 0 50 0 -1 4.000 0 0 0 1 0 2
	1 1 1.00 60.00 120.00
	 7590 6645 7590 8070
