#FIG 3.2
# Created by WinFIG version 6.0 final
# METADATA <version>1.0</version>
Portrait
Flush left
Metric
A4
30.00
Single
-2
1200 2
# METADATA <id>2</id>
1 3 0 1 0 -1 1 -1 43 0.000 1 0.0000 5625 6075 75 75 5625 6075 5700 6075
# METADATA <id>3</id>
2 2 0 1 0 -1 50 -1 2 0.000 0 0 -1 0 0 5
	 5625 6075 2475 6075 2475 7875 5625 7875 5625 6075
# METADATA <id>4</id>
2 2 0 1 0 7 50 -1 -1 0.000 0 0 -1 0 0 5
	 2475 3825 9000 3825 9000 7875 2475 7875 2475 3825
# METADATA <id>5</id>
2 2 0 1 0 -1 50 -1 2 0.000 0 0 -1 0 0 5
	 5625 3825 9000 3825 9000 6075 5625 6075 5625 3825
# METADATA <id>7</id>
4 0 0 50 -1 0 12 0.0000 6 198 315 5310 5985 $x$\001
# METADATA <id>8</id>
4 0 0 50 -1 0 12 0.0000 6 198 585 3825 7020 $x'<x$\001
# METADATA <id>9</id>
4 0 0 50 -1 0 12 0.0000 6 198 585 6930 4860 $x<x'$\001
# METADATA <id>10</id>
4 0 0 50 -1 0 12 0.0000 6 198 630 3780 4815 $x||x'$\001
# METADATA <id>11</id>
4 0 0 50 -1 0 12 0.0000 6 198 630 7065 6975 $x||x'$\001
# METADATA <id>13</id>
4 0 0 50 0 0 12 0.0000 6 198 1065 2625 7725 $B_{00}(x)$\001
# METADATA <id>14</id>
4 0 0 51 0 0 12 0.0000 6 198 1065 2595 5955 $B_{01}(x)$\001
# METADATA <id>15</id>
4 0 0 51 0 0 12 0.0000 6 198 1065 5760 7740 $B_{10}(x)$\001
# METADATA <id>16</id>
4 0 0 50 0 0 12 0.0000 6 198 1065 5850 5895 $B_{11}(x)$\001
