#FIG 3.2
# Created by WinFIG version 6.0 final
# METADATA <version>1.0</version>
Portrait
Flush left
Metric
A4
100.00
Single
-2
1200 2
# METADATA <id>171</id>
2 2 0 1 0 7 50 0 -1 4.000 0 0 7 0 0 5
	 4259 952 8038 952 8038 4731 4259 4731 4259 952
# METADATA <id>172</id>
2 1 0 2 0 7 50 0 -1 6.000 0 0 0 0 0 4
	 4252 1654 6142 2598 6614 4016 8031 4488
# METADATA <id>173</id>
2 1 1 1 0 7 50 0 -1 4.000 0 0 0 0 0 2
	 4252 4724 8031 945
# METADATA <id>176</id>
1 3 0 1 0 0 50 0 20 4.000 1 0.0000 6212 2774 62 62 6212 2774 6197 2834
# METADATA <id>177</id>
2 2 0 1 0 7 51 0 17 4.000 0 0 7 0 0 5
	 6180 2775 4245 2775 4245 945 6180 945 6180 2775
# METADATA <id>178</id>
2 2 0 1 0 7 51 0 17 4.000 0 0 7 0 0 5
	 8025 4710 6195 4710 6195 2775 8025 2775 8025 4710
# METADATA <id>185</id>
2 2 0 1 0 7 50 0 -1 4.000 0 0 7 0 0 5
	 8767 964 12546 964 12546 4743 8767 4743 8767 964
# METADATA <id>186</id>
2 1 0 2 0 7 50 0 -1 6.000 0 0 0 0 0 4
	 8760 1666 10650 2610 11122 4028 12539 4500
# METADATA <id>188</id>
1 3 0 1 0 0 50 0 20 4.000 1 0.0000 10720 2786 62 62 10720 2786 10705 2846
# METADATA <id>189</id>
2 2 0 1 0 7 51 0 17 4.000 0 0 7 0 0 5
	 10688 2787 8753 2787 8753 957 10688 957 10688 2787
# METADATA <id>192</id>
1 3 0 1 0 0 50 0 20 4.000 1 0.0000 11295 4110 62 62 11295 4110 11280 4170
# METADATA <id>191</id>
2 1 1 1 0 7 51 0 17 4.000 0 0 0 0 0 2
	 10695 4710 12525 2805
# METADATA <id>214</id>
2 2 0 1 0 7 52 0 -1 4.000 0 0 7 0 0 5
	 10695 2760 12540 2760 12540 4725 10695 4725 10695 2760
# METADATA <id>215</id>
2 2 0 1 0 7 52 0 17 4.000 0 0 7 0 0 5
	 11280 4080 12540 4080 12540 4740 11280 4740 11280 4080
# METADATA <id>216</id>
2 2 0 1 0 7 52 0 17 4.000 0 0 7 0 0 5
	 11280 4080 10680 4080 10680 2760 11280 2760 11280 4080
# METADATA <id>228</id>
2 2 0 1 0 7 50 0 -1 4.000 0 0 7 0 0 5
	 13235 949 17014 949 17014 4728 13235 4728 13235 949
# METADATA <id>230</id>
1 3 0 1 0 0 50 0 20 4.000 1 0.0000 15188 2771 62 62 15188 2771 15173 2831
# METADATA <id>231</id>
2 2 0 1 0 7 51 0 -1 4.000 0 0 7 0 0 5
	 15156 2772 13221 2772 13221 942 15156 942 15156 2772
# METADATA <id>232</id>
1 3 0 1 0 0 50 0 20 4.000 1 0.0000 15763 4095 62 62 15763 4095 15748 4155
# METADATA <id>235</id>
2 2 0 1 0 7 52 0 17 4.000 0 0 7 0 0 5
	 15748 4065 17008 4065 17008 4725 15748 4725 15748 4065
# METADATA <id>236</id>
2 2 0 1 0 7 52 0 17 4.000 0 0 7 0 0 5
	 15748 4065 15148 4065 15148 2745 15748 2745 15748 4065
# METADATA <id>237</id>
2 1 1 1 0 7 51 0 -1 4.000 0 0 0 0 0 2
	 13215 2760 15150 945
# METADATA <id>238</id>
1 3 0 1 0 0 50 0 20 4.000 1 0.0000 13995 2032 62 62 13995 2032 13980 2092
# METADATA <id>229</id>
2 1 0 2 0 7 50 0 -1 6.000 0 0 0 0 0 4
	 13228 1651 15118 2595 15590 4013 17007 4485
# METADATA <id>243</id>
2 2 0 1 0 7 52 0 17 4.000 0 0 7 0 0 5
	 13965 1995 13230 1995 13230 960 13965 960 13965 1995
# METADATA <id>244</id>
2 2 0 1 0 7 52 0 17 4.000 0 0 7 0 0 5
	 13965 1995 15150 1995 15150 2760 13965 2760 13965 1995
